<svg xmlns="http://www.w3.org/2000/svg" width="19.11" height="14.945" viewBox="0 0 19.11 14.945">
  <g id="bed" transform="translate(0 0)">
    <g id="Group_281" data-name="Group 281" transform="translate(0 0)">
      <path id="Path_3695" data-name="Path 3695" d="M17.25,66.394V62.8c0-1.608-.981-2.2-1.9-2.2H3.7c-.92,0-1.9.568-1.9,2.2v3.594c-.92.118-1.8.828-1.8,2.459v2.79a.8.8,0,0,0,.736.851H.981v2.2a.8.8,0,0,0,.736.851h.695a.8.8,0,0,0,.736-.851V72.471H15.962v2.223a.8.8,0,0,0,.736.851h.695a.8.8,0,0,0,.736-.851V72.471h.245a.8.8,0,0,0,.736-.851V68.853C19.049,67.221,18.17,66.512,17.25,66.394ZM2.493,62.8h.041c0-1.111.634-1.348,1.165-1.348h11.65c.531,0,1.165.236,1.165,1.348V66.37h-.552V64.336a.8.8,0,0,0-.736-.851h-4.5a.8.8,0,0,0-.736.851V66.37H9.136V64.336a.8.8,0,0,0-.736-.851H3.9a.8.8,0,0,0-.736.851V66.37H2.493Zm12.733,1.537V66.37h-4.5V64.336Zm-6.786,0V66.37h-4.5V64.336ZM2.391,74.694H1.7V72.471h.695v2.223Zm14.961,0h-.695V72.471h.695Zm.961-3.051H.715V70.39h17.6Zm0-2.1H.715v-.686c0-1.419.9-1.632,1.41-1.632H16.9c.531,0,1.41.213,1.41,1.632v.686Z" transform="translate(0 -60.6)" fill="#9b9fa6"/>
    </g>
  </g>
</svg>
