<svg xmlns="http://www.w3.org/2000/svg" width="22.492" height="14.281" viewBox="0 0 22.492 14.281">
  <g id="group" transform="translate(0 0)">
    <g id="Group_524" data-name="Group 524" transform="translate(0 0)">
      <path id="Path_3635" data-name="Path 3635" d="M19.452,98.534a2.568,2.568,0,1,0-2.946,0,4.449,4.449,0,0,0-1.518.89,5.757,5.757,0,0,0-2.083-1.135,3.253,3.253,0,1,0-3.364,0,5.805,5.805,0,0,0-2.06,1.121,4.485,4.485,0,0,0-1.5-.872,2.568,2.568,0,1,0-2.946,0A4.507,4.507,0,0,0,0,102.8v.294a.019.019,0,0,0,.018.018H5.46a5.986,5.986,0,0,0-.049.752v.3a2.366,2.366,0,0,0,2.368,2.368h6.9a2.366,2.366,0,0,0,2.368-2.368v-.3a5.985,5.985,0,0,0-.049-.752h5.478a.019.019,0,0,0,.018-.018V102.8A4.525,4.525,0,0,0,19.452,98.534Zm-3.329-2.1a1.856,1.856,0,1,1,1.891,1.856h-.071A1.853,1.853,0,0,1,16.123,96.429ZM8.674,95.5a2.541,2.541,0,1,1,2.688,2.537h-.294A2.545,2.545,0,0,1,8.674,95.5Zm-6.035.926A1.856,1.856,0,1,1,4.53,98.285H4.459A1.856,1.856,0,0,1,2.639,96.429Zm2.946,5.963H.721A3.8,3.8,0,0,1,4.468,99h.053a3.763,3.763,0,0,1,2.425.9A5.843,5.843,0,0,0,5.585,102.392Zm10.738,1.771a1.658,1.658,0,0,1-1.655,1.655H7.77a1.658,1.658,0,0,1-1.655-1.655v-.3a5.112,5.112,0,0,1,4.953-5.1c.049,0,.1,0,.151,0s.1,0,.151,0a5.112,5.112,0,0,1,4.953,5.1Zm.53-1.771A5.828,5.828,0,0,0,15.5,99.918,3.781,3.781,0,0,1,17.952,99h.053a3.8,3.8,0,0,1,3.747,3.4Z" transform="translate(0 -92.25)" fill="#9b9fa6"/>
    </g>
  </g>
</svg>
